<?xml version="1.0" standalone="no"?>
<!DOCTYPE svg PUBLIC "-//W3C//DTD SVG 20010904//EN"
 "http://www.w3.org/TR/2001/REC-SVG-20010904/DTD/svg10.dtd">
<svg version="1.0" xmlns="http://www.w3.org/2000/svg"
 width="260.000000pt" height="260.000000pt" viewBox="0 0 260.000000 260.000000"
 preserveAspectRatio="xMidYMid meet">
<metadata>
Created by potrace 1.11, written by Peter Selinger 2001-2013
</metadata>
<g transform="translate(0.000000,260.000000) scale(0.100000,-0.100000)"
fill="#000000" stroke="none">
<path d="M60 1300 l0 -1230 1235 0 1235 0 0 1230 0 1230 -1235 0 -1235 0 0
-1230z m897 556 c75 -24 133 -71 166 -135 23 -46 27 -67 27 -135 0 -95 -21
-151 -74 -201 l-34 -32 51 -34 c37 -24 59 -49 79 -88 25 -47 28 -64 28 -147 0
-115 -24 -188 -81 -245 -84 -84 -150 -99 -434 -99 l-213 0 -31 26 -31 26 0
510 c0 345 3 516 11 529 23 44 60 50 279 45 153 -3 218 -8 257 -20z m976 14
c123 -18 208 -78 256 -180 23 -48 26 -68 26 -160 0 -99 -2 -109 -33 -172 -37
-76 -84 -119 -165 -151 -43 -17 -80 -21 -214 -25 l-163 -4 0 -190 c0 -234 -9
-257 -98 -258 -32 0 -49 6 -67 25 l-25 24 0 516 c0 350 3 523 11 536 21 40 64
48 239 48 91 1 196 -4 233 -9z"/>
<path d="M600 1556 l0 -146 120 0 c133 0 173 11 208 54 30 39 37 102 17 153
-27 69 -49 77 -207 81 l-138 4 0 -146z"/>
<path d="M605 1238 c-3 -8 -4 -83 -3 -168 l3 -155 146 1 c164 0 196 11 232 72
25 43 25 128 1 178 -31 64 -73 78 -236 82 -111 3 -139 1 -143 -10z"/>
<path d="M1640 1530 l0 -170 124 0 c69 0 137 5 153 11 103 38 133 188 57 278
-34 41 -77 51 -216 51 l-118 0 0 -170z"/>
</g>
</svg>
